{
  "data": {
    "head": {
      "pageinfo": {
        "number": 0,
        "numberOfElements": 10,
        "size": 10,
        "totalElements": 19,
        "totalPages": 2
      },
      "rows": [
        {
          "rowId": null,
          "values": {
            "creator": {
              "display": null,
              "scale": -1,
              "value": "43fa6768-a798-4756-b074-4569ce23193f"
            },
            "code": {
              "display": null,
              "scale": -1,
              "value": "xm000001"
            },
            "sysid": {
              "display": null,
              "scale": -1,
              "value": "tm"
            },
            "classifyid": {
              "display": "在建工程",
              "scale": -1,
              "value": "03dc04f4-c050-4c6c-b1a9-6056beba8aeb"
            },
            "modifier": {
              "display": null,
              "scale": -1,
              "value": null
            },
            "description": {
              "display": null,
              "scale": -1,
              "value": null
            },
            "parentid": {
              "display": null,
              "scale": -1,
              "value": null
            },
            "dr": {
              "display": null,
              "scale": -1,
              "value": 0
            },
            "modifiedtime": {
              "display": null,
              "scale": -1,
              "value": "2017-12-18"
            },
            "enable": {
              "display": null,
              "scale": -1,
              "value": 2
            },
            "name": {
              "display": null,
              "scale": -1,
              "value": "用友基建"
            },
            "tenantid": {
              "display": null,
              "scale": -1,
              "value": "vs1h8do0"
            },
            "id": {
              "display": null,
              "scale": -1,
              "value": "31db712d79484690919e06413bc439dc"
            },
            "creationtime": {
              "display": null,
              "scale": -1,
              "value": "2017-12-18"
            },
            "ts": {
              "display": null,
              "scale": -1,
              "value": "2017-12-18"
            }
          },
          "status": 0
        },
        {
          "rowId": null,
          "values": {
            "creator": {
              "display": null,
              "scale": -1,
              "value": "43fa6768-a798-4756-b074-4569ce23193f"
            },
            "code": {
              "display": null,
              "scale": -1,
              "value": "lkf-xm"
            },
            "sysid": {
              "display": null,
              "scale": -1,
              "value": "tm"
            },
            "classifyid": {
              "display": "lkf测试项目类型",
              "scale": -1,
              "value": "2ca90c6dc3bb46829785d8a4d7050f3b"
            },
            "modifier": {
              "display": null,
              "scale": -1,
              "value": null
            },
            "description": {
              "display": null,
              "scale": -1,
              "value": "lkf的项目"
            },
            "parentid": {
              "display": null,
              "scale": -1,
              "value": null
            },
            "dr": {
              "display": null,
              "scale": -1,
              "value": 0
            },
            "modifiedtime": {
              "display": null,
              "scale": -1,
              "value": "2017-12-11"
            },
            "enable": {
              "display": null,
              "scale": -1,
              "value": 1
            },
            "name": {
              "display": null,
              "scale": -1,
              "value": "lkf项目"
            },
            "tenantid": {
              "display": null,
              "scale": -1,
              "value": "vs1h8do0"
            },
            "id": {
              "display": null,
              "scale": -1,
              "value": "cbd4e0eb7ebf4cb8a45296aec186c4e1"
            },
            "creationtime": {
              "display": null,
              "scale": -1,
              "value": "2017-12-11"
            },
            "ts": {
              "display": null,
              "scale": -1,
              "value": "2017-12-11"
            }
          },
          "status": 0
        },
        {
          "rowId": null,
          "values": {
            "creator": {
              "display": null,
              "scale": -1,
              "value": "43fa6768-a798-4756-b074-4569ce23193f"
            },
            "code": {
              "display": null,
              "scale": -1,
              "value": "test20171207"
            },
            "sysid": {
              "display": null,
              "scale": -1,
              "value": "tm"
            },
            "classifyid": {
              "display": "项目资金",
              "scale": -1,
              "value": "70f30da4-5d5f-47f2-9110-d4f85430888f"
            },
            "modifier": {
              "display": null,
              "scale": -1,
              "value": null
            },
            "description": {
              "display": null,
              "scale": -1,
              "value": "PPP1207"
            },
            "parentid": {
              "display": null,
              "scale": -1,
              "value": null
            },
            "dr": {
              "display": null,
              "scale": -1,
              "value": 0
            },
            "modifiedtime": {
              "display": null,
              "scale": -1,
              "value": "2017-12-09"
            },
            "enable": {
              "display": null,
              "scale": -1,
              "value": 1
            },
            "name": {
              "display": null,
              "scale": -1,
              "value": "测试项目1207"
            },
            "tenantid": {
              "display": null,
              "scale": -1,
              "value": "vs1h8do0"
            },
            "id": {
              "display": null,
              "scale": -1,
              "value": "0eb6fe250f3a4bc18c15a5a77dd6ba68"
            },
            "creationtime": {
              "display": null,
              "scale": -1,
              "value": "2017-12-07"
            },
            "ts": {
              "display": null,
              "scale": -1,
              "value": "2017-12-07"
            }
          },
          "status": 0
        },
        {
          "rowId": null,
          "values": {
            "creator": {
              "display": null,
              "scale": -1,
              "value": "43fa6768-a798-4756-b074-4569ce23193f"
            },
            "code": {
              "display": null,
              "scale": -1,
              "value": "xm1207"
            },
            "sysid": {
              "display": null,
              "scale": -1,
              "value": "tm"
            },
            "classifyid": {
              "display": "项目类型",
              "scale": -1,
              "value": "7dbd854b25714e9486f0ff7193dcb8ca"
            },
            "modifier": {
              "display": null,
              "scale": -1,
              "value": null
            },
            "description": {
              "display": null,
              "scale": -1,
              "value": null
            },
            "parentid": {
              "display": null,
              "scale": -1,
              "value": null
            },
            "dr": {
              "display": null,
              "scale": -1,
              "value": 0
            },
            "modifiedtime": {
              "display": null,
              "scale": -1,
              "value": "2017-12-07"
            },
            "enable": {
              "display": null,
              "scale": -1,
              "value": 1
            },
            "name": {
              "display": null,
              "scale": -1,
              "value": "xm1207"
            },
            "tenantid": {
              "display": null,
              "scale": -1,
              "value": "vs1h8do0"
            },
            "id": {
              "display": null,
              "scale": -1,
              "value": "ced8baa32f2e46be87d7424a5ccf23e6"
            },
            "creationtime": {
              "display": null,
              "scale": -1,
              "value": "2017-12-07"
            },
            "ts": {
              "display": null,
              "scale": -1,
              "value": "2017-12-07"
            }
          },
          "status": 0
        },
        {
          "rowId": null,
          "values": {
            "creator": {
              "display": null,
              "scale": -1,
              "value": "43fa6768-a798-4756-b074-4569ce23193f"
            },
            "code": {
              "display": null,
              "scale": -1,
              "value": "testpostman"
            },
            "sysid": {
              "display": null,
              "scale": -1,
              "value": "tm"
            },
            "classifyid": {
              "display": "在建工程",
              "scale": -1,
              "value": "03dc04f4-c050-4c6c-b1a9-6056beba8aeb"
            },
            "modifier": {
              "display": null,
              "scale": -1,
              "value": null
            },
            "description": {
              "display": null,
              "scale": -1,
              "value": null
            },
            "parentid": {
              "display": null,
              "scale": -1,
              "value": null
            },
            "dr": {
              "display": null,
              "scale": -1,
              "value": 0
            },
            "modifiedtime": {
              "display": null,
              "scale": -1,
              "value": "2017-12-07"
            },
            "enable": {
              "display": null,
              "scale": -1,
              "value": 1
            },
            "name": {
              "display": null,
              "scale": -1,
              "value": "testpostman"
            },
            "tenantid": {
              "display": null,
              "scale": -1,
              "value": "vs1h8do0"
            },
            "id": {
              "display": null,
              "scale": -1,
              "value": "bbc465c7468e46b8b467c6959346ae04"
            },
            "creationtime": {
              "display": null,
              "scale": -1,
              "value": "2017-12-07"
            },
            "ts": {
              "display": null,
              "scale": -1,
              "value": "2017-12-07"
            }
          },
          "status": 0
        },
        {
          "rowId": null,
          "values": {
            "creator": {
              "display": null,
              "scale": -1,
              "value": "43fa6768-a798-4756-b074-4569ce23193f"
            },
            "code": {
              "display": null,
              "scale": -1,
              "value": "A项目"
            },
            "sysid": {
              "display": null,
              "scale": -1,
              "value": "tm"
            },
            "classifyid": {
              "display": "在建工程",
              "scale": -1,
              "value": "03dc04f4-c050-4c6c-b1a9-6056beba8aeb"
            },
            "modifier": {
              "display": null,
              "scale": -1,
              "value": null
            },
            "description": {
              "display": null,
              "scale": -1,
              "value": null
            },
            "parentid": {
              "display": null,
              "scale": -1,
              "value": null
            },
            "dr": {
              "display": null,
              "scale": -1,
              "value": 0
            },
            "modifiedtime": {
              "display": null,
              "scale": -1,
              "value": "2017-12-05"
            },
            "enable": {
              "display": null,
              "scale": -1,
              "value": 1
            },
            "name": {
              "display": null,
              "scale": -1,
              "value": "A在建工程项目"
            },
            "tenantid": {
              "display": null,
              "scale": -1,
              "value": "vs1h8do0"
            },
            "id": {
              "display": null,
              "scale": -1,
              "value": "37f4464dc67d4612a2fe41411f8ecfc1"
            },
            "creationtime": {
              "display": null,
              "scale": -1,
              "value": "2017-12-05"
            },
            "ts": {
              "display": null,
              "scale": -1,
              "value": "2017-12-05"
            }
          },
          "status": 0
        },
        {
          "rowId": null,
          "values": {
            "creator": {
              "display": null,
              "scale": -1,
              "value": "43fa6768-a798-4756-b074-4569ce23193f"
            },
            "code": {
              "display": null,
              "scale": -1,
              "value": "22222"
            },
            "sysid": {
              "display": null,
              "scale": -1,
              "value": "tm"
            },
            "classifyid": {
              "display": null,
              "scale": -1,
              "value": null
            },
            "modifier": {
              "display": null,
              "scale": -1,
              "value": null
            },
            "description": {
              "display": null,
              "scale": -1,
              "value": "test"
            },
            "parentid": {
              "display": null,
              "scale": -1,
              "value": null
            },
            "dr": {
              "display": null,
              "scale": -1,
              "value": 0
            },
            "modifiedtime": {
              "display": null,
              "scale": -1,
              "value": "2017-12-05"
            },
            "enable": {
              "display": null,
              "scale": -1,
              "value": 0
            },
            "name": {
              "display": null,
              "scale": -1,
              "value": "就觉得开发时"
            },
            "tenantid": {
              "display": null,
              "scale": -1,
              "value": "vs1h8do0"
            },
            "id": {
              "display": null,
              "scale": -1,
              "value": "94faf411a3274fbbbd0610c04ffe87f3"
            },
            "creationtime": {
              "display": null,
              "scale": -1,
              "value": "2017-12-05"
            },
            "ts": {
              "display": null,
              "scale": -1,
              "value": "2017-12-05"
            }
          },
          "status": 0
        },
        {
          "rowId": null,
          "values": {
            "creator": {
              "display": null,
              "scale": -1,
              "value": "43fa6768-a798-4756-b074-4569ce23193f"
            },
            "code": {
              "display": null,
              "scale": -1,
              "value": "spy001"
            },
            "sysid": {
              "display": null,
              "scale": -1,
              "value": "tm"
            },
            "classifyid": {
              "display": "专项资金",
              "scale": -1,
              "value": "ad036083-70a3-436a-a825-0312f4c2f783"
            },
            "modifier": {
              "display": null,
              "scale": -1,
              "value": null
            },
            "description": {
              "display": null,
              "scale": -1,
              "value": null
            },
            "parentid": {
              "display": null,
              "scale": -1,
              "value": null
            },
            "dr": {
              "display": null,
              "scale": -1,
              "value": 0
            },
            "modifiedtime": {
              "display": null,
              "scale": -1,
              "value": "2017-12-07"
            },
            "enable": {
              "display": null,
              "scale": -1,
              "value": 1
            },
            "name": {
              "display": null,
              "scale": -1,
              "value": "万达城基建"
            },
            "tenantid": {
              "display": null,
              "scale": -1,
              "value": "vs1h8do0"
            },
            "id": {
              "display": null,
              "scale": -1,
              "value": "991cb4a37c1749c1a5b295f61e78bec1"
            },
            "creationtime": {
              "display": null,
              "scale": -1,
              "value": "2017-12-05"
            },
            "ts": {
              "display": null,
              "scale": -1,
              "value": "2017-12-05"
            }
          },
          "status": 0
        },
        {
          "rowId": null,
          "values": {
            "creator": {
              "display": null,
              "scale": -1,
              "value": "43fa6768-a798-4756-b074-4569ce23193f"
            },
            "code": {
              "display": null,
              "scale": -1,
              "value": "123"
            },
            "sysid": {
              "display": null,
              "scale": -1,
              "value": null
            },
            "classifyid": {
              "display": "流动资金",
              "scale": -1,
              "value": "d06bdef5-00e5-443d-9b02-e76fcd46f8bf"
            },
            "modifier": {
              "display": null,
              "scale": -1,
              "value": null
            },
            "description": {
              "display": null,
              "scale": -1,
              "value": "123"
            },
            "parentid": {
              "display": null,
              "scale": -1,
              "value": null
            },
            "dr": {
              "display": null,
              "scale": -1,
              "value": 0
            },
            "modifiedtime": {
              "display": null,
              "scale": -1,
              "value": "2017-11-20"
            },
            "enable": {
              "display": null,
              "scale": -1,
              "value": 2
            },
            "name": {
              "display": null,
              "scale": -1,
              "value": "123"
            },
            "tenantid": {
              "display": null,
              "scale": -1,
              "value": "vs1h8do0"
            },
            "id": {
              "display": null,
              "scale": -1,
              "value": "93da103c-1db5-4eb4-8eb6-7f13b2f2b86b"
            },
            "creationtime": {
              "display": null,
              "scale": -1,
              "value": "2017-11-20"
            },
            "ts": {
              "display": null,
              "scale": -1,
              "value": "2017-11-20"
            }
          },
          "status": 0
        },
        {
          "rowId": null,
          "values": {
            "creator": {
              "display": null,
              "scale": -1,
              "value": "43fa6768-a798-4756-b074-4569ce23193f"
            },
            "code": {
              "display": null,
              "scale": -1,
              "value": "spy"
            },
            "sysid": {
              "display": null,
              "scale": -1,
              "value": null
            },
            "classifyid": {
              "display": "流动资金",
              "scale": -1,
              "value": "d06bdef5-00e5-443d-9b02-e76fcd46f8bf"
            },
            "modifier": {
              "display": null,
              "scale": -1,
              "value": null
            },
            "description": {
              "display": null,
              "scale": -1,
              "value": "借调资金"
            },
            "parentid": {
              "display": null,
              "scale": -1,
              "value": null
            },
            "dr": {
              "display": null,
              "scale": -1,
              "value": 0
            },
            "modifiedtime": {
              "display": null,
              "scale": -1,
              "value": "2017-11-20"
            },
            "enable": {
              "display": null,
              "scale": -1,
              "value": 2
            },
            "name": {
              "display": null,
              "scale": -1,
              "value": "外部融资"
            },
            "tenantid": {
              "display": null,
              "scale": -1,
              "value": "vs1h8do0"
            },
            "id": {
              "display": null,
              "scale": -1,
              "value": "b088e3bd-ac02-4cbd-b7c4-9c634c8e19c8"
            },
            "creationtime": {
              "display": null,
              "scale": -1,
              "value": "2017-11-20"
            },
            "ts": {
              "display": null,
              "scale": -1,
              "value": "2017-11-20"
            }
          },
          "status": 0
        }
      ]
    }
  },
  "message": null,
  "success": true
}